"(0020,4000)","Image Comments"
"(0008,1010)","Station Name"
"(0008,0080)","Institution Name"
"(0018,1000)","Device Serial Number"
"(0051,100E)","Siemens Orientation Text"
"(0051,100F)","Siemens Coil String"
"(0019,1028)","Siemens Bandwidth per pixel phase encode"
"ImaRelTablePosition","Siemens Table Position"
"Siemens GRADSPEC lOffset","Siemens GRADSPEC lOffset"
"sGRADSPEC.alShimCurrent","Siemens GRADSPEC alShimCurrent"
"NumberOfImagesInMosaic","Siemens Mosaic Slice Count"
"sPat.lAccelFactPE","Siemens iPAT factor"
"sPat.lRefLinesPE","Siemens iPAT number of reference lines"
"sTXSPEC.asNucleusInfo[0].flReferenceAmplitude","Siemens txRefAmp"
"sProtConsistencyInfo.tMeasuredBaselineString","Siemens sProtConsistencyInfo.tMeasuredBaselineString"
"sWipMemBlock.alFree[0]","Siemens sWipMemBlock.alFree[0]"
"sWipMemBlock.alFree[1]","Siemens sWipMemBlock.alFree[1]"
"sWipMemBlock.alFree[2]","Siemens sWipMemBlock.alFree[2]"
"sWipMemBlock.alFree[3]","Siemens sWipMemBlock.alFree[3]"
"sWipMemBlock.alFree[4]","Siemens sWipMemBlock.alFree[4]"
"sWipMemBlock.alFree[5]","Siemens sWipMemBlock.alFree[5]"
"sWipMemBlock.alFree[6]","Siemens sWipMemBlock.alFree[6]"
"sWipMemBlock.alFree[7]","Siemens sWipMemBlock.alFree[7]"
"sWipMemBlock.alFree[8]","Siemens sWipMemBlock.alFree[8]"
"sWipMemBlock.alFree[9]","Siemens sWipMemBlock.alFree[9]"
"sWipMemBlock.alFree[10]","Siemens sWipMemBlock.alFree[10]"
"sWipMemBlock.alFree[11]","Siemens sWipMemBlock.alFree[11]"
"sWipMemBlock.alFree[12]","Siemens sWipMemBlock.alFree[12]"
"sWipMemBlock.alFree[13]","Siemens sWipMemBlock.alFree[13]"
"sWipMemBlock.alFree[14]","Siemens sWipMemBlock.alFree[14]"
"sWipMemBlock.alFree[15]","Siemens sWipMemBlock.alFree[15]"
"sWipMemBlock.alFree[16]","Siemens sWipMemBlock.alFree[16]"
"sWipMemBlock.alFree[17]","Siemens sWipMemBlock.alFree[17]"
"sWipMemBlock.alFree[18]","Siemens sWipMemBlock.alFree[18]"
"sWipMemBlock.alFree[19]","Siemens sWipMemBlock.alFree[19]"
"sWipMemBlock.alFree[20]","Siemens sWipMemBlock.alFree[20]"
"sWipMemBlock.alFree[21]","Siemens sWipMemBlock.alFree[21]"
"sWipMemBlock.alFree[22]","Siemens sWipMemBlock.alFree[22]"
"sWipMemBlock.alFree[23]","Siemens sWipMemBlock.alFree[23]"
"sWipMemBlock.alFree[24]","Siemens sWipMemBlock.alFree[24]"
"sWipMemBlock.alFree[25]","Siemens sWipMemBlock.alFree[25]"
"sWipMemBlock.alFree[26]","Siemens sWipMemBlock.alFree[26]"
"sWipMemBlock.alFree[27]","Siemens sWipMemBlock.alFree[27]"
"sWipMemBlock.alFree[28]","Siemens sWipMemBlock.alFree[28]"
"sWipMemBlock.alFree[29]","Siemens sWipMemBlock.alFree[29]"
"sWipMemBlock.alFree[30]","Siemens sWipMemBlock.alFree[30]"
"sWipMemBlock.alFree[31]","Siemens sWipMemBlock.alFree[31]"
"sWipMemBlock.alFree[32]","Siemens sWipMemBlock.alFree[32]"
"sWipMemBlock.alFree[33]","Siemens sWipMemBlock.alFree[33]"
"sWipMemBlock.alFree[34]","Siemens sWipMemBlock.alFree[34]"
"sWipMemBlock.alFree[35]","Siemens sWipMemBlock.alFree[35]"
"sWipMemBlock.alFree[36]","Siemens sWipMemBlock.alFree[36]"
"sWipMemBlock.alFree[37]","Siemens sWipMemBlock.alFree[37]"
"sWipMemBlock.alFree[38]","Siemens sWipMemBlock.alFree[38]"
"sWipMemBlock.alFree[39]","Siemens sWipMemBlock.alFree[39]"
"sWipMemBlock.alFree[40]","Siemens sWipMemBlock.alFree[40]"
"sWipMemBlock.alFree[41]","Siemens sWipMemBlock.alFree[41]"
"sWipMemBlock.alFree[42]","Siemens sWipMemBlock.alFree[42]"
"sWipMemBlock.alFree[43]","Siemens sWipMemBlock.alFree[43]"
"sWipMemBlock.alFree[44]","Siemens sWipMemBlock.alFree[44]"
"sWipMemBlock.alFree[45]","Siemens sWipMemBlock.alFree[45]"
"sWipMemBlock.alFree[46]","Siemens sWipMemBlock.alFree[46]"
"sWipMemBlock.alFree[47]","Siemens sWipMemBlock.alFree[47]"
"sWipMemBlock.alFree[48]","Siemens sWipMemBlock.alFree[48]"
"sWipMemBlock.alFree[49]","Siemens sWipMemBlock.alFree[49]"
"sWipMemBlock.alFree[50]","Siemens sWipMemBlock.alFree[50]"
"sWipMemBlock.alFree[51]","Siemens sWipMemBlock.alFree[51]"
"sWipMemBlock.alFree[52]","Siemens sWipMemBlock.alFree[52]"
"sWipMemBlock.alFree[53]","Siemens sWipMemBlock.alFree[53]"
"sWipMemBlock.alFree[54]","Siemens sWipMemBlock.alFree[54]"
"sWipMemBlock.alFree[55]","Siemens sWipMemBlock.alFree[55]"
"sWipMemBlock.alFree[56]","Siemens sWipMemBlock.alFree[56]"
"sWipMemBlock.alFree[57]","Siemens sWipMemBlock.alFree[57]"
"sWipMemBlock.alFree[58]","Siemens sWipMemBlock.alFree[58]"
"sWipMemBlock.alFree[59]","Siemens sWipMemBlock.alFree[59]"
"sWipMemBlock.alFree[60]","Siemens sWipMemBlock.alFree[60]"
"sWipMemBlock.alFree[61]","Siemens sWipMemBlock.alFree[61]"
"sWipMemBlock.alFree[62]","Siemens sWipMemBlock.alFree[62]"
"sWipMemBlock.alFree[63]","Siemens sWipMemBlock.alFree[63]"
"sWipMemBlock.alFree[64]","Siemens sWipMemBlock.alFree[64]"
"sWipMemBlock.alFree[65]","Siemens sWipMemBlock.alFree[65]"
"sWipMemBlock.alFree[66]","Siemens sWipMemBlock.alFree[66]"
"sWipMemBlock.alFree[67]","Siemens sWipMemBlock.alFree[67]"
"sWipMemBlock.alFree[68]","Siemens sWipMemBlock.alFree[68]"
"sWipMemBlock.alFree[69]","Siemens sWipMemBlock.alFree[69]"
"sWipMemBlock.alFree[70]","Siemens sWipMemBlock.alFree[70]"
"sWipMemBlock.alFree[71]","Siemens sWipMemBlock.alFree[71]"
"sWipMemBlock.alFree[72]","Siemens sWipMemBlock.alFree[72]"
"sWipMemBlock.alFree[73]","Siemens sWipMemBlock.alFree[73]"
"sWipMemBlock.alFree[74]","Siemens sWipMemBlock.alFree[74]"
"sWipMemBlock.alFree[75]","Siemens sWipMemBlock.alFree[75]"
"sWipMemBlock.alFree[76]","Siemens sWipMemBlock.alFree[76]"
"sWipMemBlock.alFree[77]","Siemens sWipMemBlock.alFree[77]"
"sWipMemBlock.alFree[78]","Siemens sWipMemBlock.alFree[78]"
"sWipMemBlock.alFree[79]","Siemens sWipMemBlock.alFree[79]"
"sWipMemBlock.alFree[80]","Siemens sWipMemBlock.alFree[80]"
"sWipMemBlock.alFree[81]","Siemens sWipMemBlock.alFree[81]"
"sWipMemBlock.alFree[82]","Siemens sWipMemBlock.alFree[82]"
"sWipMemBlock.alFree[83]","Siemens sWipMemBlock.alFree[83]"
"sWipMemBlock.alFree[84]","Siemens sWipMemBlock.alFree[84]"
"sWipMemBlock.alFree[85]","Siemens sWipMemBlock.alFree[85]"
"sWipMemBlock.alFree[86]","Siemens sWipMemBlock.alFree[86]"
"sWipMemBlock.alFree[87]","Siemens sWipMemBlock.alFree[87]"
"sWipMemBlock.alFree[88]","Siemens sWipMemBlock.alFree[88]"
"sWipMemBlock.alFree[89]","Siemens sWipMemBlock.alFree[89]"
"sWipMemBlock.alFree[90]","Siemens sWipMemBlock.alFree[90]"
"sWipMemBlock.alFree[91]","Siemens sWipMemBlock.alFree[91]"
"sWipMemBlock.alFree[92]","Siemens sWipMemBlock.alFree[92]"
"sWipMemBlock.alFree[93]","Siemens sWipMemBlock.alFree[93]"
"sWipMemBlock.alFree[94]","Siemens sWipMemBlock.alFree[94]"
"sWipMemBlock.alFree[95]","Siemens sWipMemBlock.alFree[95]"
"sWipMemBlock.alFree[96]","Siemens sWipMemBlock.alFree[96]"
"sWipMemBlock.alFree[97]","Siemens sWipMemBlock.alFree[97]"
"sWipMemBlock.alFree[98]","Siemens sWipMemBlock.alFree[98]"
"sWipMemBlock.alFree[99]","Siemens sWipMemBlock.alFree[99]"
"sWipMemBlock.adFree[0]","Siemens sWipMemBlock.adFree[0]"
"sWipMemBlock.adFree[1]","Siemens sWipMemBlock.adFree[1]"
"sWipMemBlock.adFree[2]","Siemens sWipMemBlock.adFree[2]"
"sWipMemBlock.adFree[3]","Siemens sWipMemBlock.adFree[3]"
"sWipMemBlock.adFree[4]","Siemens sWipMemBlock.adFree[4]"
"sWipMemBlock.adFree[5]","Siemens sWipMemBlock.adFree[5]"
"sWipMemBlock.adFree[6]","Siemens sWipMemBlock.adFree[6]"
"sWipMemBlock.adFree[7]","Siemens sWipMemBlock.adFree[7]"
"sWipMemBlock.adFree[8]","Siemens sWipMemBlock.adFree[8]"
"sWipMemBlock.adFree[9]","Siemens sWipMemBlock.adFree[9]"
"sWipMemBlock.adFree[10]","Siemens sWipMemBlock.adFree[10]"
"sWipMemBlock.adFree[11]","Siemens sWipMemBlock.adFree[11]"
"sWipMemBlock.adFree[12]","Siemens sWipMemBlock.adFree[12]"
"sWipMemBlock.adFree[13]","Siemens sWipMemBlock.adFree[13]"
"sWipMemBlock.adFree[14]","Siemens sWipMemBlock.adFree[14]"
"sWipMemBlock.adFree[15]","Siemens sWipMemBlock.adFree[15]"
"sWipMemBlock.adFree[16]","Siemens sWipMemBlock.adFree[16]"
"sWipMemBlock.adFree[17]","Siemens sWipMemBlock.adFree[17]"
"sWipMemBlock.adFree[18]","Siemens sWipMemBlock.adFree[18]"
"sWipMemBlock.adFree[19]","Siemens sWipMemBlock.adFree[19]"
"sWipMemBlock.adFree[20]","Siemens sWipMemBlock.adFree[20]"
"sWipMemBlock.adFree[21]","Siemens sWipMemBlock.adFree[21]"
"sWipMemBlock.adFree[22]","Siemens sWipMemBlock.adFree[22]"
"sWipMemBlock.adFree[23]","Siemens sWipMemBlock.adFree[23]"
"sWipMemBlock.adFree[24]","Siemens sWipMemBlock.adFree[24]"
"sWipMemBlock.adFree[25]","Siemens sWipMemBlock.adFree[25]"
"sWipMemBlock.adFree[26]","Siemens sWipMemBlock.adFree[26]"
"sWipMemBlock.adFree[27]","Siemens sWipMemBlock.adFree[27]"
"sWipMemBlock.adFree[28]","Siemens sWipMemBlock.adFree[28]"
"sWipMemBlock.adFree[29]","Siemens sWipMemBlock.adFree[29]"
"sWipMemBlock.adFree[30]","Siemens sWipMemBlock.adFree[30]"
"sWipMemBlock.adFree[31]","Siemens sWipMemBlock.adFree[31]"
"sWipMemBlock.adFree[32]","Siemens sWipMemBlock.adFree[32]"
"sWipMemBlock.adFree[33]","Siemens sWipMemBlock.adFree[33]"
"sWipMemBlock.adFree[34]","Siemens sWipMemBlock.adFree[34]"
"sWipMemBlock.adFree[35]","Siemens sWipMemBlock.adFree[35]"
"sWipMemBlock.adFree[36]","Siemens sWipMemBlock.adFree[36]"
"sWipMemBlock.adFree[37]","Siemens sWipMemBlock.adFree[37]"
"sWipMemBlock.adFree[38]","Siemens sWipMemBlock.adFree[38]"
"sWipMemBlock.adFree[39]","Siemens sWipMemBlock.adFree[39]"
"sWipMemBlock.adFree[40]","Siemens sWipMemBlock.adFree[40]"
"sWipMemBlock.adFree[41]","Siemens sWipMemBlock.adFree[41]"
"sWipMemBlock.adFree[42]","Siemens sWipMemBlock.adFree[42]"
"sWipMemBlock.adFree[43]","Siemens sWipMemBlock.adFree[43]"
"sWipMemBlock.adFree[44]","Siemens sWipMemBlock.adFree[44]"
"sWipMemBlock.adFree[45]","Siemens sWipMemBlock.adFree[45]"
"sWipMemBlock.adFree[46]","Siemens sWipMemBlock.adFree[46]"
"sWipMemBlock.adFree[47]","Siemens sWipMemBlock.adFree[47]"
"sWipMemBlock.adFree[48]","Siemens sWipMemBlock.adFree[48]"
"sWipMemBlock.adFree[49]","Siemens sWipMemBlock.adFree[49]"
"sWipMemBlock.adFree[50]","Siemens sWipMemBlock.adFree[50]"
"sWipMemBlock.adFree[51]","Siemens sWipMemBlock.adFree[51]"
"sWipMemBlock.adFree[52]","Siemens sWipMemBlock.adFree[52]"
"sWipMemBlock.adFree[53]","Siemens sWipMemBlock.adFree[53]"
"sWipMemBlock.adFree[54]","Siemens sWipMemBlock.adFree[54]"
"sWipMemBlock.adFree[55]","Siemens sWipMemBlock.adFree[55]"
"sWipMemBlock.adFree[56]","Siemens sWipMemBlock.adFree[56]"
"sWipMemBlock.adFree[57]","Siemens sWipMemBlock.adFree[57]"
"sWipMemBlock.adFree[58]","Siemens sWipMemBlock.adFree[58]"
"sWipMemBlock.adFree[59]","Siemens sWipMemBlock.adFree[59]"
"sWipMemBlock.adFree[60]","Siemens sWipMemBlock.adFree[60]"
"sWipMemBlock.adFree[61]","Siemens sWipMemBlock.adFree[61]"
"sWipMemBlock.adFree[62]","Siemens sWipMemBlock.adFree[62]"
"sWipMemBlock.adFree[63]","Siemens sWipMemBlock.adFree[63]"
"sWipMemBlock.adFree[64]","Siemens sWipMemBlock.adFree[64]"
"sWipMemBlock.adFree[65]","Siemens sWipMemBlock.adFree[65]"
"sWipMemBlock.adFree[66]","Siemens sWipMemBlock.adFree[66]"
"sWipMemBlock.adFree[67]","Siemens sWipMemBlock.adFree[67]"
"sWipMemBlock.adFree[68]","Siemens sWipMemBlock.adFree[68]"
"sWipMemBlock.adFree[69]","Siemens sWipMemBlock.adFree[69]"
"sWipMemBlock.adFree[70]","Siemens sWipMemBlock.adFree[70]"
"sWipMemBlock.adFree[71]","Siemens sWipMemBlock.adFree[71]"
"sWipMemBlock.adFree[72]","Siemens sWipMemBlock.adFree[72]"
"sWipMemBlock.adFree[73]","Siemens sWipMemBlock.adFree[73]"
"sWipMemBlock.adFree[74]","Siemens sWipMemBlock.adFree[74]"
"sWipMemBlock.adFree[75]","Siemens sWipMemBlock.adFree[75]"
"sWipMemBlock.adFree[76]","Siemens sWipMemBlock.adFree[76]"
"sWipMemBlock.adFree[77]","Siemens sWipMemBlock.adFree[77]"
"sWipMemBlock.adFree[78]","Siemens sWipMemBlock.adFree[78]"
"sWipMemBlock.adFree[79]","Siemens sWipMemBlock.adFree[79]"
"sWipMemBlock.adFree[80]","Siemens sWipMemBlock.adFree[80]"
"sWipMemBlock.adFree[81]","Siemens sWipMemBlock.adFree[81]"
"sWipMemBlock.adFree[82]","Siemens sWipMemBlock.adFree[82]"
"sWipMemBlock.adFree[83]","Siemens sWipMemBlock.adFree[83]"
"sWipMemBlock.adFree[84]","Siemens sWipMemBlock.adFree[84]"
"sWipMemBlock.adFree[85]","Siemens sWipMemBlock.adFree[85]"
"sWipMemBlock.adFree[86]","Siemens sWipMemBlock.adFree[86]"
"sWipMemBlock.adFree[87]","Siemens sWipMemBlock.adFree[87]"
"sWipMemBlock.adFree[88]","Siemens sWipMemBlock.adFree[88]"
"sWipMemBlock.adFree[89]","Siemens sWipMemBlock.adFree[89]"
"sWipMemBlock.adFree[90]","Siemens sWipMemBlock.adFree[90]"
"sWipMemBlock.adFree[91]","Siemens sWipMemBlock.adFree[91]"
"sWipMemBlock.adFree[92]","Siemens sWipMemBlock.adFree[92]"
"sWipMemBlock.adFree[93]","Siemens sWipMemBlock.adFree[93]"
"sWipMemBlock.adFree[94]","Siemens sWipMemBlock.adFree[94]"
"sWipMemBlock.adFree[95]","Siemens sWipMemBlock.adFree[95]"
"sWipMemBlock.adFree[96]","Siemens sWipMemBlock.adFree[96]"
"sWipMemBlock.adFree[97]","Siemens sWipMemBlock.adFree[97]"
"sWipMemBlock.adFree[98]","Siemens sWipMemBlock.adFree[98]"
"sWipMemBlock.adFree[99]","Siemens sWipMemBlock.adFree[99]"
"sSliceArray.asSlice[0].dThickness","Siemens sSliceArray.asSlice[0].dThickness"
"sSliceArray.asSlice[0].dPhaseFOV","Siemens sSliceArray.asSlice[0].dPhaseFOV"
"sSliceArray.asSlice[0].dReadoutFOV","Siemens sSliceArray.asSlice[0].dReadoutFOV"
"sSliceArray.asSlice[0].dInPlaneRot","Siemens sSliceArray.asSlice[0].dInPlaneRot"
"sSliceArray.asSlice[0].sPosition.dSag","Siemens sSliceArray.asSlice[0].sPosition.dSag"
"sSliceArray.asSlice[0].sPosition.dCor","Siemens sSliceArray.asSlice[0].sPosition.dCor"
"sSliceArray.asSlice[0].sPosition.dTra","Siemens sSliceArray.asSlice[0].sPosition.dTra"
"sSliceArray.asSlice[0].sNormal.dSag","Siemens sSliceArray.asSlice[0].sNormal.dSag"
"sSliceArray.asSlice[0].sNormal.dCor","Siemens sSliceArray.asSlice[0].sNormal.dCor"
"sSliceArray.asSlice[0].sNormal.dTra","Siemens sSliceArray.asSlice[0].sNormal.dTra"
"sAdjData.sAdjVolume.dThickness","Siemens sAdjData.sAdjVolume.dThickness"
"sAdjData.sAdjVolume.dPhaseFOV","Siemens sAdjData.sAdjVolume.dPhaseFOV"
"sAdjData.sAdjVolume.dReadoutFOV","Siemens sAdjData.sAdjVolume.dReadoutFOV"
"sAdjData.sAdjVolume.dInPlaneRot","Siemens sAdjData.sAdjVolume.dInPlaneRot"
"sAdjData.sAdjVolume.sPosition.dSag","Siemens sAdjData.sAdjVolume.sPosition.dSag"
"sAdjData.sAdjVolume.sPosition.dCor","Siemens sAdjData.sAdjVolume.sPosition.dCor"
"sAdjData.sAdjVolume.sPosition.dTra","Siemens sAdjData.sAdjVolume.sPosition.dTra"
"sAdjData.sAdjVolume.sNormal.dSag","Siemens sAdjData.sAdjVolume.sNormal.dSag"
"sAdjData.sAdjVolume.sNormal.dCor","Siemens sAdjData.sAdjVolume.sNormal.dCor"
"sAdjData.sAdjVolume.sNormal.dTra","Siemens sAdjData.sAdjVolume.sNormal.dTra"
"sNavigatorArray.asElm[0].sCuboid.dThickness","Siemens sNavigatorArray.asElm[0].sCuboid.dThickness"
"sNavigatorArray.asElm[0].sCuboid.dPhaseFOV","Siemens sNavigatorArray.asElm[0].sCuboid.dPhaseFOV"
"sNavigatorArray.asElm[0].sCuboid.dReadoutFOV","Siemens sNavigatorArray.asElm[0].sCuboid.dReadoutFOV"
"sNavigatorArray.asElm[0].sCuboid.dInPlaneRot","Siemens sNavigatorArray.asElm[0].sCuboid.dInPlaneRot"
"sNavigatorArray.asElm[0].sCuboid.sPosition.dSag","Siemens sNavigatorArray.asElm[0].sCuboid.sPosition.dSag"
"sNavigatorArray.asElm[0].sCuboid.sPosition.dCor","Siemens sNavigatorArray.asElm[0].sCuboid.sPosition.dCor"
"sNavigatorArray.asElm[0].sCuboid.sPosition.dTra","Siemens sNavigatorArray.asElm[0].sCuboid.sPosition.dTra"
"sNavigatorArray.asElm[0].sCuboid.sNormal.dSag","Siemens sNavigatorArray.asElm[0].sCuboid.sNormal.dSag"
"sNavigatorArray.asElm[0].sCuboid.sNormal.dCor","Siemens sNavigatorArray.asElm[0].sCuboid.sNormal.dCor"
"sNavigatorArray.asElm[0].sCuboid.sNormal.dTra","Siemens sNavigatorArray.asElm[0].sCuboid.sNormal.dTra"
"adFlipAngleDegree[1]","adFlipAngleDegree[1]"
"(0019,100C)","Diffusion maximum b"
"(0029,1020)","Siemens CSA Image Series Shadow Header"
"fMRI_Version_Sequence","fMRI_Version_Sequence"
"fMRI_Version_ICE_Linux","fMRI_Version_ICE_Linux"
"fMRI_Version_ICE_Win32","fMRI_Version_ICE_Win32"
"(0018,0023)","Acquisition_type"
"(0018,0020)","Scan_sequence"
"(0018,0021)","Sequence_variant"
"(0018,0022)","Scan_options"
"(0018,5100)","Subject_position"
"(0018,0095)","Pixel_bandwidth"
"(0018,1312)","In-plane_phase_encoding_direction"
"sSliceArray.asSlice[0].dInPlaneRot","In-plane_phase_encoding_rotation"
"UUID","UUID"
"(0019,1018)","Readout_sample_spacing"
"PhaseEncodingDirectionPositive","PhaseEncoding_direction_positive"
"Echo_Spacing_(sec)","Echo_Spacing_(sec)"
"(0018,1020)","Software_Version(s)"
"sCoilSelectMeas.aRxCoilSelectData[0].asList[0].sCoilElementID.tCoilID","coil"
"sSliceArray.asSlice[0].dInPlaneRot","Siemens_sSliceArray.asSlice[0].dInPlaneRot"
#"(0018,0081)","EchoTime"
#"(0018,0086)","EchoNumber"
#"(0051,100b)","Siemens Acquisition Matrix Text"
#"(0019,1014)","Siemens Table Position"
#"(0019,100a)","Siemens Mosaic Slice Count"